rtl/vcd/bit_ext.vcd
$date
	Sat Oct 24 00:10:08 2020
$end
$version
	Icarus Verilog
$end
$timescale
	10ps
$end
$scope module tb_bit_ext $end
$var wire 12 ! out [11:0] $end
$var reg 8 " in [7:0] $end
$scope module bit_ext $end
$var wire 8 # a_in [7:0] $end
$var wire 12 $ a_out [11:0] $end
$upscope $end
$upscope $end
$enddefinitions $end
#0
$dumpvars
b111110000000 $
b10000000 #
b10000000 "
b111110000000 !
$end
#100
b111110000001 !
b111110000001 $
b10000001 "
b10000001 #
#200
b111110000010 !
b111110000010 $
b10000010 "
b10000010 #
#300
b111110000011 !
b111110000011 $
b10000011 "
b10000011 #
#400
b111110000100 !
b111110000100 $
b10000100 "
b10000100 #
#500
b111110000101 !
b111110000101 $
b10000101 "
b10000101 #
#600
b111110000110 !
b111110000110 $
b10000110 "
b10000110 #
#700
b111110000111 !
b111110000111 $
b10000111 "
b10000111 #
#800
b111110001000 !
b111110001000 $
b10001000 "
b10001000 #
#900
b111110001001 !
b111110001001 $
b10001001 "
b10001001 #
#1000
b111110001010 !
b111110001010 $
b10001010 "
b10001010 #
#1100
b111110001011 !
b111110001011 $
b10001011 "
b10001011 #
#1200
b111110001100 !
b111110001100 $
b10001100 "
b10001100 #
#1300
b111110001101 !
b111110001101 $
b10001101 "
b10001101 #
#1400
b111110001110 !
b111110001110 $
b10001110 "
b10001110 #
#1500
b111110001111 !
b111110001111 $
b10001111 "
b10001111 #
#1600
b111110010000 !
b111110010000 $
b10010000 "
b10010000 #
#1700
b111110010001 !
b111110010001 $
b10010001 "
b10010001 #
#1800
b111110010010 !
b111110010010 $
b10010010 "
b10010010 #
#1900
b111110010011 !
b111110010011 $
b10010011 "
b10010011 #
#2000
b111110010100 !
b111110010100 $
b10010100 "
b10010100 #
#2100
b111110010101 !
b111110010101 $
b10010101 "
b10010101 #
#2200
b111110010110 !
b111110010110 $
b10010110 "
b10010110 #
#2300
b111110010111 !
b111110010111 $
b10010111 "
b10010111 #
#2400
b111110011000 !
b111110011000 $
b10011000 "
b10011000 #
#2500
b111110011001 !
b111110011001 $
b10011001 "
b10011001 #
#2600
b111110011010 !
b111110011010 $
b10011010 "
b10011010 #
#2700
b111110011011 !
b111110011011 $
b10011011 "
b10011011 #
#2800
b111110011100 !
b111110011100 $
b10011100 "
b10011100 #
#2900
b111110011101 !
b111110011101 $
b10011101 "
b10011101 #
#3000
b111110011110 !
b111110011110 $
b10011110 "
b10011110 #
#3100
b111110011111 !
b111110011111 $
b10011111 "
b10011111 #
#3200
b111110100000 !
b111110100000 $
b10100000 "
b10100000 #
#3300
b111110100001 !
b111110100001 $
b10100001 "
b10100001 #
#3400
b111110100010 !
b111110100010 $
b10100010 "
b10100010 #
#3500
b111110100011 !
b111110100011 $
b10100011 "
b10100011 #
#3600
b111110100100 !
b111110100100 $
b10100100 "
b10100100 #
#3700
b111110100101 !
b111110100101 $
b10100101 "
b10100101 #
#3800
b111110100110 !
b111110100110 $
b10100110 "
b10100110 #
#3900
b111110100111 !
b111110100111 $
b10100111 "
b10100111 #
#4000
b111110101000 !
b111110101000 $
b10101000 "
b10101000 #
#4100
b111110101001 !
b111110101001 $
b10101001 "
b10101001 #
#4200
b111110101010 !
b111110101010 $
b10101010 "
b10101010 #
#4300
b111110101011 !
b111110101011 $
b10101011 "
b10101011 #
#4400
b111110101100 !
b111110101100 $
b10101100 "
b10101100 #
#4500
b111110101101 !
b111110101101 $
b10101101 "
b10101101 #
#4600
b111110101110 !
b111110101110 $
b10101110 "
b10101110 #
#4700
b111110101111 !
b111110101111 $
b10101111 "
b10101111 #
#4800
b111110110000 !
b111110110000 $
b10110000 "
b10110000 #
#4900
b111110110001 !
b111110110001 $
b10110001 "
b10110001 #
#5000
b111110110010 !
b111110110010 $
b10110010 "
b10110010 #
#5100
b111110110011 !
b111110110011 $
b10110011 "
b10110011 #
#5200
b111110110100 !
b111110110100 $
b10110100 "
b10110100 #
#5300
b111110110101 !
b111110110101 $
b10110101 "
b10110101 #
#5400
b111110110110 !
b111110110110 $
b10110110 "
b10110110 #
#5500
b111110110111 !
b111110110111 $
b10110111 "
b10110111 #
#5600
b111110111000 !
b111110111000 $
b10111000 "
b10111000 #
#5700
b111110111001 !
b111110111001 $
b10111001 "
b10111001 #
#5800
b111110111010 !
b111110111010 $
b10111010 "
b10111010 #
#5900
b111110111011 !
b111110111011 $
b10111011 "
b10111011 #
#6000
b111110111100 !
b111110111100 $
b10111100 "
b10111100 #
#6100
b111110111101 !
b111110111101 $
b10111101 "
b10111101 #
#6200
b111110111110 !
b111110111110 $
b10111110 "
b10111110 #
#6300
b111110111111 !
b111110111111 $
b10111111 "
b10111111 #
#6400
b111111000000 !
b111111000000 $
b11000000 "
b11000000 #
#6500
b111111000001 !
b111111000001 $
b11000001 "
b11000001 #
#6600
b111111000010 !
b111111000010 $
b11000010 "
b11000010 #
#6700
b111111000011 !
b111111000011 $
b11000011 "
b11000011 #
#6800
b111111000100 !
b111111000100 $
b11000100 "
b11000100 #
#6900
b111111000101 !
b111111000101 $
b11000101 "
b11000101 #
#7000
b111111000110 !
b111111000110 $
b11000110 "
b11000110 #
#7100
b111111000111 !
b111111000111 $
b11000111 "
b11000111 #
#7200
b111111001000 !
b111111001000 $
b11001000 "
b11001000 #
#7300
b111111001001 !
b111111001001 $
b11001001 "
b11001001 #
#7400
b111111001010 !
b111111001010 $
b11001010 "
b11001010 #
#7500
b111111001011 !
b111111001011 $
b11001011 "
b11001011 #
#7600
b111111001100 !
b111111001100 $
b11001100 "
b11001100 #
#7700
b111111001101 !
b111111001101 $
b11001101 "
b11001101 #
#7800
b111111001110 !
b111111001110 $
b11001110 "
b11001110 #
#7900
b111111001111 !
b111111001111 $
b11001111 "
b11001111 #
#8000
b111111010000 !
b111111010000 $
b11010000 "
b11010000 #
#8100
b111111010001 !
b111111010001 $
b11010001 "
b11010001 #
#8200
b111111010010 !
b111111010010 $
b11010010 "
b11010010 #
#8300
b111111010011 !
b111111010011 $
b11010011 "
b11010011 #
#8400
b111111010100 !
b111111010100 $
b11010100 "
b11010100 #
#8500
b111111010101 !
b111111010101 $
b11010101 "
b11010101 #
#8600
b111111010110 !
b111111010110 $
b11010110 "
b11010110 #
#8700
b111111010111 !
b111111010111 $
b11010111 "
b11010111 #
#8800
b111111011000 !
b111111011000 $
b11011000 "
b11011000 #
#8900
b111111011001 !
b111111011001 $
b11011001 "
b11011001 #
#9000
b111111011010 !
b111111011010 $
b11011010 "
b11011010 #
#9100
b111111011011 !
b111111011011 $
b11011011 "
b11011011 #
#9200
b111111011100 !
b111111011100 $
b11011100 "
b11011100 #
#9300
b111111011101 !
b111111011101 $
b11011101 "
b11011101 #
#9400
b111111011110 !
b111111011110 $
b11011110 "
b11011110 #
#9500
b111111011111 !
b111111011111 $
b11011111 "
b11011111 #
#9600
b111111100000 !
b111111100000 $
b11100000 "
b11100000 #
#9700
b111111100001 !
b111111100001 $
b11100001 "
b11100001 #
#9800
b111111100010 !
b111111100010 $
b11100010 "
b11100010 #
#9900
b111111100011 !
b111111100011 $
b11100011 "
b11100011 #
#10000
b111111100100 !
b111111100100 $
b11100100 "
b11100100 #
#10100
b111111100101 !
b111111100101 $
b11100101 "
b11100101 #
#10200
b111111100110 !
b111111100110 $
b11100110 "
b11100110 #
#10300
b111111100111 !
b111111100111 $
b11100111 "
b11100111 #
#10400
b111111101000 !
b111111101000 $
b11101000 "
b11101000 #
#10500
b111111101001 !
b111111101001 $
b11101001 "
b11101001 #
#10600
b111111101010 !
b111111101010 $
b11101010 "
b11101010 #
#10700
b111111101011 !
b111111101011 $
b11101011 "
b11101011 #
#10800
b111111101100 !
b111111101100 $
b11101100 "
b11101100 #
#10900
b111111101101 !
b111111101101 $
b11101101 "
b11101101 #
#11000
b111111101110 !
b111111101110 $
b11101110 "
b11101110 #
#11100
b111111101111 !
b111111101111 $
b11101111 "
b11101111 #
#11200
b111111110000 !
b111111110000 $
b11110000 "
b11110000 #
#11300
b111111110001 !
b111111110001 $
b11110001 "
b11110001 #
#11400
b111111110010 !
b111111110010 $
b11110010 "
b11110010 #
#11500
b111111110011 !
b111111110011 $
b11110011 "
b11110011 #
#11600
b111111110100 !
b111111110100 $
b11110100 "
b11110100 #
#11700
b111111110101 !
b111111110101 $
b11110101 "
b11110101 #
#11800
b111111110110 !
b111111110110 $
b11110110 "
b11110110 #
#11900
b111111110111 !
b111111110111 $
b11110111 "
b11110111 #
#12000
b111111111000 !
b111111111000 $
b11111000 "
b11111000 #
#12100
b111111111001 !
b111111111001 $
b11111001 "
b11111001 #
#12200
b111111111010 !
b111111111010 $
b11111010 "
b11111010 #
#12300
b111111111011 !
b111111111011 $
b11111011 "
b11111011 #
#12400
b111111111100 !
b111111111100 $
b11111100 "
b11111100 #
#12500
b111111111101 !
b111111111101 $
b11111101 "
b11111101 #
#12600
b111111111110 !
b111111111110 $
b11111110 "
b11111110 #
#12700
b111111111111 !
b111111111111 $
b11111111 "
b11111111 #
#12800
b0 !
b0 $
b0 "
b0 #
#12900
b1 !
b1 $
b1 "
b1 #
#13000
b10 !
b10 $
b10 "
b10 #
#13100
b11 !
b11 $
b11 "
b11 #
#13200
b100 !
b100 $
b100 "
b100 #
#13300
b101 !
b101 $
b101 "
b101 #
#13400
b110 !
b110 $
b110 "
b110 #
#13500
b111 !
b111 $
b111 "
b111 #
#13600
b1000 !
b1000 $
b1000 "
b1000 #
#13700
b1001 !
b1001 $
b1001 "
b1001 #
#13800
b1010 !
b1010 $
b1010 "
b1010 #
#13900
b1011 !
b1011 $
b1011 "
b1011 #
#14000
b1100 !
b1100 $
b1100 "
b1100 #
#14100
b1101 !
b1101 $
b1101 "
b1101 #
#14200
b1110 !
b1110 $
b1110 "
b1110 #
#14300
b1111 !
b1111 $
b1111 "
b1111 #
#14400
b10000 !
b10000 $
b10000 "
b10000 #
#14500
b10001 !
b10001 $
b10001 "
b10001 #
#14600
b10010 !
b10010 $
b10010 "
b10010 #
#14700
b10011 !
b10011 $
b10011 "
b10011 #
#14800
b10100 !
b10100 $
b10100 "
b10100 #
#14900
b10101 !
b10101 $
b10101 "
b10101 #
#15000
b10110 !
b10110 $
b10110 "
b10110 #
#15100
b10111 !
b10111 $
b10111 "
b10111 #
#15200
b11000 !
b11000 $
b11000 "
b11000 #
#15300
b11001 !
b11001 $
b11001 "
b11001 #
#15400
b11010 !
b11010 $
b11010 "
b11010 #
#15500
b11011 !
b11011 $
b11011 "
b11011 #
#15600
b11100 !
b11100 $
b11100 "
b11100 #
#15700
b11101 !
b11101 $
b11101 "
b11101 #
#15800
b11110 !
b11110 $
b11110 "
b11110 #
#15900
b11111 !
b11111 $
b11111 "
b11111 #
#16000
b100000 !
b100000 $
b100000 "
b100000 #
#16100
b100001 !
b100001 $
b100001 "
b100001 #
#16200
b100010 !
b100010 $
b100010 "
b100010 #
#16300
b100011 !
b100011 $
b100011 "
b100011 #
#16400
b100100 !
b100100 $
b100100 "
b100100 #
#16500
b100101 !
b100101 $
b100101 "
b100101 #
#16600
b100110 !
b100110 $
b100110 "
b100110 #
#16700
b100111 !
b100111 $
b100111 "
b100111 #
#16800
b101000 !
b101000 $
b101000 "
b101000 #
#16900
b101001 !
b101001 $
b101001 "
b101001 #
#17000
b101010 !
b101010 $
b101010 "
b101010 #
#17100
b101011 !
b101011 $
b101011 "
b101011 #
#17200
b101100 !
b101100 $
b101100 "
b101100 #
#17300
b101101 !
b101101 $
b101101 "
b101101 #
#17400
b101110 !
b101110 $
b101110 "
b101110 #
#17500
b101111 !
b101111 $
b101111 "
b101111 #
#17600
b110000 !
b110000 $
b110000 "
b110000 #
#17700
b110001 !
b110001 $
b110001 "
b110001 #
#17800
b110010 !
b110010 $
b110010 "
b110010 #
#17900
b110011 !
b110011 $
b110011 "
b110011 #
#18000
b110100 !
b110100 $
b110100 "
b110100 #
#18100
b110101 !
b110101 $
b110101 "
b110101 #
#18200
b110110 !
b110110 $
b110110 "
b110110 #
#18300
b110111 !
b110111 $
b110111 "
b110111 #
#18400
b111000 !
b111000 $
b111000 "
b111000 #
#18500
b111001 !
b111001 $
b111001 "
b111001 #
#18600
b111010 !
b111010 $
b111010 "
b111010 #
#18700
b111011 !
b111011 $
b111011 "
b111011 #
#18800
b111100 !
b111100 $
b111100 "
b111100 #
#18900
b111101 !
b111101 $
b111101 "
b111101 #
#19000
b111110 !
b111110 $
b111110 "
b111110 #
#19100
b111111 !
b111111 $
b111111 "
b111111 #
#19200
b1000000 !
b1000000 $
b1000000 "
b1000000 #
#19300
b1000001 !
b1000001 $
b1000001 "
b1000001 #
#19400
b1000010 !
b1000010 $
b1000010 "
b1000010 #
#19500
b1000011 !
b1000011 $
b1000011 "
b1000011 #
#19600
b1000100 !
b1000100 $
b1000100 "
b1000100 #
#19700
b1000101 !
b1000101 $
b1000101 "
b1000101 #
#19800
b1000110 !
b1000110 $
b1000110 "
b1000110 #
#19900
b1000111 !
b1000111 $
b1000111 "
b1000111 #
#20000
b1001000 !
b1001000 $
b1001000 "
b1001000 #
#20100
b1001001 !
b1001001 $
b1001001 "
b1001001 #
#20200
b1001010 !
b1001010 $
b1001010 "
b1001010 #
#20300
b1001011 !
b1001011 $
b1001011 "
b1001011 #
#20400
b1001100 !
b1001100 $
b1001100 "
b1001100 #
#20500
b1001101 !
b1001101 $
b1001101 "
b1001101 #
#20600
b1001110 !
b1001110 $
b1001110 "
b1001110 #
#20700
b1001111 !
b1001111 $
b1001111 "
b1001111 #
#20800
b1010000 !
b1010000 $
b1010000 "
b1010000 #
#20900
b1010001 !
b1010001 $
b1010001 "
b1010001 #
#21000
b1010010 !
b1010010 $
b1010010 "
b1010010 #
#21100
b1010011 !
b1010011 $
b1010011 "
b1010011 #
#21200
b1010100 !
b1010100 $
b1010100 "
b1010100 #
#21300
b1010101 !
b1010101 $
b1010101 "
b1010101 #
#21400
b1010110 !
b1010110 $
b1010110 "
b1010110 #
#21500
b1010111 !
b1010111 $
b1010111 "
b1010111 #
#21600
b1011000 !
b1011000 $
b1011000 "
b1011000 #
#21700
b1011001 !
b1011001 $
b1011001 "
b1011001 #
#21800
b1011010 !
b1011010 $
b1011010 "
b1011010 #
#21900
b1011011 !
b1011011 $
b1011011 "
b1011011 #
#22000
b1011100 !
b1011100 $
b1011100 "
b1011100 #
#22100
b1011101 !
b1011101 $
b1011101 "
b1011101 #
#22200
b1011110 !
b1011110 $
b1011110 "
b1011110 #
#22300
b1011111 !
b1011111 $
b1011111 "
b1011111 #
#22400
b1100000 !
b1100000 $
b1100000 "
b1100000 #
#22500
b1100001 !
b1100001 $
b1100001 "
b1100001 #
#22600
b1100010 !
b1100010 $
b1100010 "
b1100010 #
#22700
b1100011 !
b1100011 $
b1100011 "
b1100011 #
#22800
b1100100 !
b1100100 $
b1100100 "
b1100100 #
#22900
b1100101 !
b1100101 $
b1100101 "
b1100101 #
#23000
b1100110 !
b1100110 $
b1100110 "
b1100110 #
#23100
b1100111 !
b1100111 $
b1100111 "
b1100111 #
#23200
b1101000 !
b1101000 $
b1101000 "
b1101000 #
#23300
b1101001 !
b1101001 $
b1101001 "
b1101001 #
#23400
b1101010 !
b1101010 $
b1101010 "
b1101010 #
#23500
b1101011 !
b1101011 $
b1101011 "
b1101011 #
#23600
b1101100 !
b1101100 $
b1101100 "
b1101100 #
#23700
b1101101 !
b1101101 $
b1101101 "
b1101101 #
#23800
b1101110 !
b1101110 $
b1101110 "
b1101110 #
#23900
b1101111 !
b1101111 $
b1101111 "
b1101111 #
#24000
b1110000 !
b1110000 $
b1110000 "
b1110000 #
#24100
b1110001 !
b1110001 $
b1110001 "
b1110001 #
#24200
b1110010 !
b1110010 $
b1110010 "
b1110010 #
#24300
b1110011 !
b1110011 $
b1110011 "
b1110011 #
#24400
b1110100 !
b1110100 $
b1110100 "
b1110100 #
#24500
b1110101 !
b1110101 $
b1110101 "
b1110101 #
#24600
b1110110 !
b1110110 $
b1110110 "
b1110110 #
#24700
b1110111 !
b1110111 $
b1110111 "
b1110111 #
#24800
b1111000 !
b1111000 $
b1111000 "
b1111000 #
#24900
b1111001 !
b1111001 $
b1111001 "
b1111001 #
#25000
b1111010 !
b1111010 $
b1111010 "
b1111010 #
#25100
b1111011 !
b1111011 $
b1111011 "
b1111011 #
#25200
b1111100 !
b1111100 $
b1111100 "
b1111100 #
#25300
b1111101 !
b1111101 $
b1111101 "
b1111101 #
#25400
b1111110 !
b1111110 $
b1111110 "
b1111110 #
#25500
b1111111 !
b1111111 $
b1111111 "
b1111111 #
