rtl/vcd/relu_bound.vcd
$date
	Sat Oct 24 00:10:14 2020
$end
$version
	Icarus Verilog
$end
$timescale
	10ps
$end
$scope module tb_relu_bound $end
$var wire 8 ! out [7:0] $end
$var reg 8 " in [7:0] $end
$scope module rb $end
$var wire 8 # a [7:0] $end
$var reg 8 $ ar [7:0] $end
$var reg 8 % zero_signed [7:0] $end
$upscope $end
$upscope $end
$enddefinitions $end
#0
$dumpvars
b0 %
b0 $
b10000000 #
b10000000 "
b0 !
$end
#1000
b10000001 "
b10000001 #
#2000
b10000010 "
b10000010 #
#3000
b10000011 "
b10000011 #
#4000
b10000100 "
b10000100 #
#5000
b10000101 "
b10000101 #
#6000
b10000110 "
b10000110 #
#7000
b10000111 "
b10000111 #
#8000
b10001000 "
b10001000 #
#9000
b10001001 "
b10001001 #
#10000
b10001010 "
b10001010 #
#11000
b10001011 "
b10001011 #
#12000
b10001100 "
b10001100 #
#13000
b10001101 "
b10001101 #
#14000
b10001110 "
b10001110 #
#15000
b10001111 "
b10001111 #
#16000
b10010000 "
b10010000 #
#17000
b10010001 "
b10010001 #
#18000
b10010010 "
b10010010 #
#19000
b10010011 "
b10010011 #
#20000
b10010100 "
b10010100 #
#21000
b10010101 "
b10010101 #
#22000
b10010110 "
b10010110 #
#23000
b10010111 "
b10010111 #
#24000
b10011000 "
b10011000 #
#25000
b10011001 "
b10011001 #
#26000
b10011010 "
b10011010 #
#27000
b10011011 "
b10011011 #
#28000
b10011100 "
b10011100 #
#29000
b10011101 "
b10011101 #
#30000
b10011110 "
b10011110 #
#31000
b10011111 "
b10011111 #
#32000
b10100000 "
b10100000 #
#33000
b10100001 "
b10100001 #
#34000
b10100010 "
b10100010 #
#35000
b10100011 "
b10100011 #
#36000
b10100100 "
b10100100 #
#37000
b10100101 "
b10100101 #
#38000
b10100110 "
b10100110 #
#39000
b10100111 "
b10100111 #
#40000
b10101000 "
b10101000 #
#41000
b10101001 "
b10101001 #
#42000
b10101010 "
b10101010 #
#43000
b10101011 "
b10101011 #
#44000
b10101100 "
b10101100 #
#45000
b10101101 "
b10101101 #
#46000
b10101110 "
b10101110 #
#47000
b10101111 "
b10101111 #
#48000
b10110000 "
b10110000 #
#49000
b10110001 "
b10110001 #
#50000
b10110010 "
b10110010 #
#51000
b10110011 "
b10110011 #
#52000
b10110100 "
b10110100 #
#53000
b10110101 "
b10110101 #
#54000
b10110110 "
b10110110 #
#55000
b10110111 "
b10110111 #
#56000
b10111000 "
b10111000 #
#57000
b10111001 "
b10111001 #
#58000
b10111010 "
b10111010 #
#59000
b10111011 "
b10111011 #
#60000
b10111100 "
b10111100 #
#61000
b10111101 "
b10111101 #
#62000
b10111110 "
b10111110 #
#63000
b10111111 "
b10111111 #
#64000
b11000000 "
b11000000 #
#65000
b11000001 "
b11000001 #
#66000
b11000010 "
b11000010 #
#67000
b11000011 "
b11000011 #
#68000
b11000100 "
b11000100 #
#69000
b11000101 "
b11000101 #
#70000
b11000110 "
b11000110 #
#71000
b11000111 "
b11000111 #
#72000
b11001000 "
b11001000 #
#73000
b11001001 "
b11001001 #
#74000
b11001010 "
b11001010 #
#75000
b11001011 "
b11001011 #
#76000
b11001100 "
b11001100 #
#77000
b11001101 "
b11001101 #
#78000
b11001110 "
b11001110 #
#79000
b11001111 "
b11001111 #
#80000
b11010000 "
b11010000 #
#81000
b11010001 "
b11010001 #
#82000
b11010010 "
b11010010 #
#83000
b11010011 "
b11010011 #
#84000
b11010100 "
b11010100 #
#85000
b11010101 "
b11010101 #
#86000
b11010110 "
b11010110 #
#87000
b11010111 "
b11010111 #
#88000
b11011000 "
b11011000 #
#89000
b11011001 "
b11011001 #
#90000
b11011010 "
b11011010 #
#91000
b11011011 "
b11011011 #
#92000
b11011100 "
b11011100 #
#93000
b11011101 "
b11011101 #
#94000
b11011110 "
b11011110 #
#95000
b11011111 "
b11011111 #
#96000
b11100000 "
b11100000 #
#97000
b11100001 "
b11100001 #
#98000
b11100010 "
b11100010 #
#99000
b11100011 "
b11100011 #
#100000
b11100100 "
b11100100 #
#101000
b11100101 "
b11100101 #
#102000
b11100110 "
b11100110 #
#103000
b11100111 "
b11100111 #
#104000
b11101000 "
b11101000 #
#105000
b11101001 "
b11101001 #
#106000
b11101010 "
b11101010 #
#107000
b11101011 "
b11101011 #
#108000
b11101100 "
b11101100 #
#109000
b11101101 "
b11101101 #
#110000
b11101110 "
b11101110 #
#111000
b11101111 "
b11101111 #
#112000
b11110000 "
b11110000 #
#113000
b11110001 "
b11110001 #
#114000
b11110010 "
b11110010 #
#115000
b11110011 "
b11110011 #
#116000
b11110100 "
b11110100 #
#117000
b11110101 "
b11110101 #
#118000
b11110110 "
b11110110 #
#119000
b11110111 "
b11110111 #
#120000
b11111000 "
b11111000 #
#121000
b11111001 "
b11111001 #
#122000
b11111010 "
b11111010 #
#123000
b11111011 "
b11111011 #
#124000
b11111100 "
b11111100 #
#125000
b11111101 "
b11111101 #
#126000
b11111110 "
b11111110 #
#127000
b11111111 "
b11111111 #
#128000
b0 "
b0 #
#129000
b1 !
b1 $
b1 "
b1 #
#130000
b10 !
b10 $
b10 "
b10 #
#131000
b11 !
b11 $
b11 "
b11 #
#132000
b100 !
b100 $
b100 "
b100 #
#133000
b101 !
b101 $
b101 "
b101 #
#134000
b110 !
b110 $
b110 "
b110 #
#135000
b111 !
b111 $
b111 "
b111 #
#136000
b1000 !
b1000 $
b1000 "
b1000 #
#137000
b1001 !
b1001 $
b1001 "
b1001 #
#138000
b1010 !
b1010 $
b1010 "
b1010 #
#139000
b1011 !
b1011 $
b1011 "
b1011 #
#140000
b1100 !
b1100 $
b1100 "
b1100 #
#141000
b1101 !
b1101 $
b1101 "
b1101 #
#142000
b1110 !
b1110 $
b1110 "
b1110 #
#143000
b1111 !
b1111 $
b1111 "
b1111 #
#144000
b10000 !
b10000 $
b10000 "
b10000 #
#145000
b10001 !
b10001 $
b10001 "
b10001 #
#146000
b10010 !
b10010 $
b10010 "
b10010 #
#147000
b10011 !
b10011 $
b10011 "
b10011 #
#148000
b10100 !
b10100 $
b10100 "
b10100 #
#149000
b10101 !
b10101 $
b10101 "
b10101 #
#150000
b10110 !
b10110 $
b10110 "
b10110 #
#151000
b10111 !
b10111 $
b10111 "
b10111 #
#152000
b11000 !
b11000 $
b11000 "
b11000 #
#153000
b11001 !
b11001 $
b11001 "
b11001 #
#154000
b11010 !
b11010 $
b11010 "
b11010 #
#155000
b11011 !
b11011 $
b11011 "
b11011 #
#156000
b11100 !
b11100 $
b11100 "
b11100 #
#157000
b11101 !
b11101 $
b11101 "
b11101 #
#158000
b11110 !
b11110 $
b11110 "
b11110 #
#159000
b11111 !
b11111 $
b11111 "
b11111 #
#160000
b100000 !
b100000 $
b100000 "
b100000 #
#161000
b100001 !
b100001 $
b100001 "
b100001 #
#162000
b100010 !
b100010 $
b100010 "
b100010 #
#163000
b100011 !
b100011 $
b100011 "
b100011 #
#164000
b100100 !
b100100 $
b100100 "
b100100 #
#165000
b100101 !
b100101 $
b100101 "
b100101 #
#166000
b100110 !
b100110 $
b100110 "
b100110 #
#167000
b100111 !
b100111 $
b100111 "
b100111 #
#168000
b101000 !
b101000 $
b101000 "
b101000 #
#169000
b101001 !
b101001 $
b101001 "
b101001 #
#170000
b101010 !
b101010 $
b101010 "
b101010 #
#171000
b101011 !
b101011 $
b101011 "
b101011 #
#172000
b101100 !
b101100 $
b101100 "
b101100 #
#173000
b101101 !
b101101 $
b101101 "
b101101 #
#174000
b101110 !
b101110 $
b101110 "
b101110 #
#175000
b101111 !
b101111 $
b101111 "
b101111 #
#176000
b110000 !
b110000 $
b110000 "
b110000 #
#177000
b110001 !
b110001 $
b110001 "
b110001 #
#178000
b110010 !
b110010 $
b110010 "
b110010 #
#179000
b110011 !
b110011 $
b110011 "
b110011 #
#180000
b110100 !
b110100 $
b110100 "
b110100 #
#181000
b110101 !
b110101 $
b110101 "
b110101 #
#182000
b110110 !
b110110 $
b110110 "
b110110 #
#183000
b110111 !
b110111 $
b110111 "
b110111 #
#184000
b111000 !
b111000 $
b111000 "
b111000 #
#185000
b111001 !
b111001 $
b111001 "
b111001 #
#186000
b111010 !
b111010 $
b111010 "
b111010 #
#187000
b111011 !
b111011 $
b111011 "
b111011 #
#188000
b111100 !
b111100 $
b111100 "
b111100 #
#189000
b111101 !
b111101 $
b111101 "
b111101 #
#190000
b111110 !
b111110 $
b111110 "
b111110 #
#191000
b111111 !
b111111 $
b111111 "
b111111 #
#192000
b1000000 !
b1000000 $
b1000000 "
b1000000 #
#193000
b1000001 !
b1000001 $
b1000001 "
b1000001 #
#194000
b1000010 !
b1000010 $
b1000010 "
b1000010 #
#195000
b1000011 !
b1000011 $
b1000011 "
b1000011 #
#196000
b1000100 !
b1000100 $
b1000100 "
b1000100 #
#197000
b1000101 !
b1000101 $
b1000101 "
b1000101 #
#198000
b1000110 !
b1000110 $
b1000110 "
b1000110 #
#199000
b1000111 !
b1000111 $
b1000111 "
b1000111 #
#200000
b1001000 !
b1001000 $
b1001000 "
b1001000 #
#201000
b1001001 !
b1001001 $
b1001001 "
b1001001 #
#202000
b1001010 !
b1001010 $
b1001010 "
b1001010 #
#203000
b1001011 !
b1001011 $
b1001011 "
b1001011 #
#204000
b1001100 !
b1001100 $
b1001100 "
b1001100 #
#205000
b1001101 !
b1001101 $
b1001101 "
b1001101 #
#206000
b1001110 !
b1001110 $
b1001110 "
b1001110 #
#207000
b1001111 !
b1001111 $
b1001111 "
b1001111 #
#208000
b1010000 !
b1010000 $
b1010000 "
b1010000 #
#209000
b1010001 !
b1010001 $
b1010001 "
b1010001 #
#210000
b1010010 !
b1010010 $
b1010010 "
b1010010 #
#211000
b1010011 !
b1010011 $
b1010011 "
b1010011 #
#212000
b1010100 !
b1010100 $
b1010100 "
b1010100 #
#213000
b1010101 !
b1010101 $
b1010101 "
b1010101 #
#214000
b1010110 !
b1010110 $
b1010110 "
b1010110 #
#215000
b1010111 !
b1010111 $
b1010111 "
b1010111 #
#216000
b1011000 !
b1011000 $
b1011000 "
b1011000 #
#217000
b1011001 !
b1011001 $
b1011001 "
b1011001 #
#218000
b1011010 !
b1011010 $
b1011010 "
b1011010 #
#219000
b1011011 !
b1011011 $
b1011011 "
b1011011 #
#220000
b1011100 !
b1011100 $
b1011100 "
b1011100 #
#221000
b1011101 !
b1011101 $
b1011101 "
b1011101 #
#222000
b1011110 !
b1011110 $
b1011110 "
b1011110 #
#223000
b1011111 !
b1011111 $
b1011111 "
b1011111 #
#224000
b1100000 !
b1100000 $
b1100000 "
b1100000 #
#225000
b1100001 "
b1100001 #
#226000
b1100010 "
b1100010 #
#227000
b1100011 "
b1100011 #
#228000
b1100100 "
b1100100 #
#229000
b1100101 "
b1100101 #
#230000
b1100110 "
b1100110 #
#231000
b1100111 "
b1100111 #
#232000
b1101000 "
b1101000 #
#233000
b1101001 "
b1101001 #
#234000
b1101010 "
b1101010 #
#235000
b1101011 "
b1101011 #
#236000
b1101100 "
b1101100 #
#237000
b1101101 "
b1101101 #
#238000
b1101110 "
b1101110 #
#239000
b1101111 "
b1101111 #
#240000
b1110000 "
b1110000 #
#241000
b1110001 "
b1110001 #
#242000
b1110010 "
b1110010 #
#243000
b1110011 "
b1110011 #
#244000
b1110100 "
b1110100 #
#245000
b1110101 "
b1110101 #
#246000
b1110110 "
b1110110 #
#247000
b1110111 "
b1110111 #
#248000
b1111000 "
b1111000 #
#249000
b1111001 "
b1111001 #
#250000
b1111010 "
b1111010 #
#251000
b1111011 "
b1111011 #
#252000
b1111100 "
b1111100 #
#253000
b1111101 "
b1111101 #
#254000
b1111110 "
b1111110 #
#255000
b1111111 "
b1111111 #
