rtl/vcd/sat_unit.vcd
$date
	Sat Oct 24 00:10:19 2020
$end
$version
	Icarus Verilog
$end
$timescale
	10ps
$end
$scope module tb_sat_unit $end
$var wire 8 ! out [7:0] $end
$var reg 13 " in [12:0] $end
$scope module satu $end
$var wire 13 # a_in [12:0] $end
$var wire 8 $ a_out [7:0] $end
$var reg 13 % max_in [12:0] $end
$var reg 8 & max_out [7:0] $end
$var reg 13 ' min_in [12:0] $end
$var reg 8 ( min_out [7:0] $end
$upscope $end
$upscope $end
$enddefinitions $end
#0
$dumpvars
b10000000 (
b1111110000000 '
b1111111 &
b1111111 %
b10000000 $
b1111100000000 #
b1111100000000 "
b10000000 !
$end
#100
b1111100000001 "
b1111100000001 #
#200
b1111100000010 "
b1111100000010 #
#300
b1111100000011 "
b1111100000011 #
#400
b1111100000100 "
b1111100000100 #
#500
b1111100000101 "
b1111100000101 #
#600
b1111100000110 "
b1111100000110 #
#700
b1111100000111 "
b1111100000111 #
#800
b1111100001000 "
b1111100001000 #
#900
b1111100001001 "
b1111100001001 #
#1000
b1111100001010 "
b1111100001010 #
#1100
b1111100001011 "
b1111100001011 #
#1200
b1111100001100 "
b1111100001100 #
#1300
b1111100001101 "
b1111100001101 #
#1400
b1111100001110 "
b1111100001110 #
#1500
b1111100001111 "
b1111100001111 #
#1600
b1111100010000 "
b1111100010000 #
#1700
b1111100010001 "
b1111100010001 #
#1800
b1111100010010 "
b1111100010010 #
#1900
b1111100010011 "
b1111100010011 #
#2000
b1111100010100 "
b1111100010100 #
#2100
b1111100010101 "
b1111100010101 #
#2200
b1111100010110 "
b1111100010110 #
#2300
b1111100010111 "
b1111100010111 #
#2400
b1111100011000 "
b1111100011000 #
#2500
b1111100011001 "
b1111100011001 #
#2600
b1111100011010 "
b1111100011010 #
#2700
b1111100011011 "
b1111100011011 #
#2800
b1111100011100 "
b1111100011100 #
#2900
b1111100011101 "
b1111100011101 #
#3000
b1111100011110 "
b1111100011110 #
#3100
b1111100011111 "
b1111100011111 #
#3200
b1111100100000 "
b1111100100000 #
#3300
b1111100100001 "
b1111100100001 #
#3400
b1111100100010 "
b1111100100010 #
#3500
b1111100100011 "
b1111100100011 #
#3600
b1111100100100 "
b1111100100100 #
#3700
b1111100100101 "
b1111100100101 #
#3800
b1111100100110 "
b1111100100110 #
#3900
b1111100100111 "
b1111100100111 #
#4000
b1111100101000 "
b1111100101000 #
#4100
b1111100101001 "
b1111100101001 #
#4200
b1111100101010 "
b1111100101010 #
#4300
b1111100101011 "
b1111100101011 #
#4400
b1111100101100 "
b1111100101100 #
#4500
b1111100101101 "
b1111100101101 #
#4600
b1111100101110 "
b1111100101110 #
#4700
b1111100101111 "
b1111100101111 #
#4800
b1111100110000 "
b1111100110000 #
#4900
b1111100110001 "
b1111100110001 #
#5000
b1111100110010 "
b1111100110010 #
#5100
b1111100110011 "
b1111100110011 #
#5200
b1111100110100 "
b1111100110100 #
#5300
b1111100110101 "
b1111100110101 #
#5400
b1111100110110 "
b1111100110110 #
#5500
b1111100110111 "
b1111100110111 #
#5600
b1111100111000 "
b1111100111000 #
#5700
b1111100111001 "
b1111100111001 #
#5800
b1111100111010 "
b1111100111010 #
#5900
b1111100111011 "
b1111100111011 #
#6000
b1111100111100 "
b1111100111100 #
#6100
b1111100111101 "
b1111100111101 #
#6200
b1111100111110 "
b1111100111110 #
#6300
b1111100111111 "
b1111100111111 #
#6400
b1111101000000 "
b1111101000000 #
#6500
b1111101000001 "
b1111101000001 #
#6600
b1111101000010 "
b1111101000010 #
#6700
b1111101000011 "
b1111101000011 #
#6800
b1111101000100 "
b1111101000100 #
#6900
b1111101000101 "
b1111101000101 #
#7000
b1111101000110 "
b1111101000110 #
#7100
b1111101000111 "
b1111101000111 #
#7200
b1111101001000 "
b1111101001000 #
#7300
b1111101001001 "
b1111101001001 #
#7400
b1111101001010 "
b1111101001010 #
#7500
b1111101001011 "
b1111101001011 #
#7600
b1111101001100 "
b1111101001100 #
#7700
b1111101001101 "
b1111101001101 #
#7800
b1111101001110 "
b1111101001110 #
#7900
b1111101001111 "
b1111101001111 #
#8000
b1111101010000 "
b1111101010000 #
#8100
b1111101010001 "
b1111101010001 #
#8200
b1111101010010 "
b1111101010010 #
#8300
b1111101010011 "
b1111101010011 #
#8400
b1111101010100 "
b1111101010100 #
#8500
b1111101010101 "
b1111101010101 #
#8600
b1111101010110 "
b1111101010110 #
#8700
b1111101010111 "
b1111101010111 #
#8800
b1111101011000 "
b1111101011000 #
#8900
b1111101011001 "
b1111101011001 #
#9000
b1111101011010 "
b1111101011010 #
#9100
b1111101011011 "
b1111101011011 #
#9200
b1111101011100 "
b1111101011100 #
#9300
b1111101011101 "
b1111101011101 #
#9400
b1111101011110 "
b1111101011110 #
#9500
b1111101011111 "
b1111101011111 #
#9600
b1111101100000 "
b1111101100000 #
#9700
b1111101100001 "
b1111101100001 #
#9800
b1111101100010 "
b1111101100010 #
#9900
b1111101100011 "
b1111101100011 #
#10000
b1111101100100 "
b1111101100100 #
#10100
b1111101100101 "
b1111101100101 #
#10200
b1111101100110 "
b1111101100110 #
#10300
b1111101100111 "
b1111101100111 #
#10400
b1111101101000 "
b1111101101000 #
#10500
b1111101101001 "
b1111101101001 #
#10600
b1111101101010 "
b1111101101010 #
#10700
b1111101101011 "
b1111101101011 #
#10800
b1111101101100 "
b1111101101100 #
#10900
b1111101101101 "
b1111101101101 #
#11000
b1111101101110 "
b1111101101110 #
#11100
b1111101101111 "
b1111101101111 #
#11200
b1111101110000 "
b1111101110000 #
#11300
b1111101110001 "
b1111101110001 #
#11400
b1111101110010 "
b1111101110010 #
#11500
b1111101110011 "
b1111101110011 #
#11600
b1111101110100 "
b1111101110100 #
#11700
b1111101110101 "
b1111101110101 #
#11800
b1111101110110 "
b1111101110110 #
#11900
b1111101110111 "
b1111101110111 #
#12000
b1111101111000 "
b1111101111000 #
#12100
b1111101111001 "
b1111101111001 #
#12200
b1111101111010 "
b1111101111010 #
#12300
b1111101111011 "
b1111101111011 #
#12400
b1111101111100 "
b1111101111100 #
#12500
b1111101111101 "
b1111101111101 #
#12600
b1111101111110 "
b1111101111110 #
#12700
b1111101111111 "
b1111101111111 #
#12800
b10000000 !
b10000000 $
b1111110000000 "
b1111110000000 #
#12900
b10000001 !
b10000001 $
b1111110000001 "
b1111110000001 #
#13000
b10000010 !
b10000010 $
b1111110000010 "
b1111110000010 #
#13100
b10000011 !
b10000011 $
b1111110000011 "
b1111110000011 #
#13200
b10000100 !
b10000100 $
b1111110000100 "
b1111110000100 #
#13300
b10000101 !
b10000101 $
b1111110000101 "
b1111110000101 #
#13400
b10000110 !
b10000110 $
b1111110000110 "
b1111110000110 #
#13500
b10000111 !
b10000111 $
b1111110000111 "
b1111110000111 #
#13600
b10001000 !
b10001000 $
b1111110001000 "
b1111110001000 #
#13700
b10001001 !
b10001001 $
b1111110001001 "
b1111110001001 #
#13800
b10001010 !
b10001010 $
b1111110001010 "
b1111110001010 #
#13900
b10001011 !
b10001011 $
b1111110001011 "
b1111110001011 #
#14000
b10001100 !
b10001100 $
b1111110001100 "
b1111110001100 #
#14100
b10001101 !
b10001101 $
b1111110001101 "
b1111110001101 #
#14200
b10001110 !
b10001110 $
b1111110001110 "
b1111110001110 #
#14300
b10001111 !
b10001111 $
b1111110001111 "
b1111110001111 #
#14400
b10010000 !
b10010000 $
b1111110010000 "
b1111110010000 #
#14500
b10010001 !
b10010001 $
b1111110010001 "
b1111110010001 #
#14600
b10010010 !
b10010010 $
b1111110010010 "
b1111110010010 #
#14700
b10010011 !
b10010011 $
b1111110010011 "
b1111110010011 #
#14800
b10010100 !
b10010100 $
b1111110010100 "
b1111110010100 #
#14900
b10010101 !
b10010101 $
b1111110010101 "
b1111110010101 #
#15000
b10010110 !
b10010110 $
b1111110010110 "
b1111110010110 #
#15100
b10010111 !
b10010111 $
b1111110010111 "
b1111110010111 #
#15200
b10011000 !
b10011000 $
b1111110011000 "
b1111110011000 #
#15300
b10011001 !
b10011001 $
b1111110011001 "
b1111110011001 #
#15400
b10011010 !
b10011010 $
b1111110011010 "
b1111110011010 #
#15500
b10011011 !
b10011011 $
b1111110011011 "
b1111110011011 #
#15600
b10011100 !
b10011100 $
b1111110011100 "
b1111110011100 #
#15700
b10011101 !
b10011101 $
b1111110011101 "
b1111110011101 #
#15800
b10011110 !
b10011110 $
b1111110011110 "
b1111110011110 #
#15900
b10011111 !
b10011111 $
b1111110011111 "
b1111110011111 #
#16000
b10100000 !
b10100000 $
b1111110100000 "
b1111110100000 #
#16100
b10100001 !
b10100001 $
b1111110100001 "
b1111110100001 #
#16200
b10100010 !
b10100010 $
b1111110100010 "
b1111110100010 #
#16300
b10100011 !
b10100011 $
b1111110100011 "
b1111110100011 #
#16400
b10100100 !
b10100100 $
b1111110100100 "
b1111110100100 #
#16500
b10100101 !
b10100101 $
b1111110100101 "
b1111110100101 #
#16600
b10100110 !
b10100110 $
b1111110100110 "
b1111110100110 #
#16700
b10100111 !
b10100111 $
b1111110100111 "
b1111110100111 #
#16800
b10101000 !
b10101000 $
b1111110101000 "
b1111110101000 #
#16900
b10101001 !
b10101001 $
b1111110101001 "
b1111110101001 #
#17000
b10101010 !
b10101010 $
b1111110101010 "
b1111110101010 #
#17100
b10101011 !
b10101011 $
b1111110101011 "
b1111110101011 #
#17200
b10101100 !
b10101100 $
b1111110101100 "
b1111110101100 #
#17300
b10101101 !
b10101101 $
b1111110101101 "
b1111110101101 #
#17400
b10101110 !
b10101110 $
b1111110101110 "
b1111110101110 #
#17500
b10101111 !
b10101111 $
b1111110101111 "
b1111110101111 #
#17600
b10110000 !
b10110000 $
b1111110110000 "
b1111110110000 #
#17700
b10110001 !
b10110001 $
b1111110110001 "
b1111110110001 #
#17800
b10110010 !
b10110010 $
b1111110110010 "
b1111110110010 #
#17900
b10110011 !
b10110011 $
b1111110110011 "
b1111110110011 #
#18000
b10110100 !
b10110100 $
b1111110110100 "
b1111110110100 #
#18100
b10110101 !
b10110101 $
b1111110110101 "
b1111110110101 #
#18200
b10110110 !
b10110110 $
b1111110110110 "
b1111110110110 #
#18300
b10110111 !
b10110111 $
b1111110110111 "
b1111110110111 #
#18400
b10111000 !
b10111000 $
b1111110111000 "
b1111110111000 #
#18500
b10111001 !
b10111001 $
b1111110111001 "
b1111110111001 #
#18600
b10111010 !
b10111010 $
b1111110111010 "
b1111110111010 #
#18700
b10111011 !
b10111011 $
b1111110111011 "
b1111110111011 #
#18800
b10111100 !
b10111100 $
b1111110111100 "
b1111110111100 #
#18900
b10111101 !
b10111101 $
b1111110111101 "
b1111110111101 #
#19000
b10111110 !
b10111110 $
b1111110111110 "
b1111110111110 #
#19100
b10111111 !
b10111111 $
b1111110111111 "
b1111110111111 #
#19200
b11000000 !
b11000000 $
b1111111000000 "
b1111111000000 #
#19300
b11000001 !
b11000001 $
b1111111000001 "
b1111111000001 #
#19400
b11000010 !
b11000010 $
b1111111000010 "
b1111111000010 #
#19500
b11000011 !
b11000011 $
b1111111000011 "
b1111111000011 #
#19600
b11000100 !
b11000100 $
b1111111000100 "
b1111111000100 #
#19700
b11000101 !
b11000101 $
b1111111000101 "
b1111111000101 #
#19800
b11000110 !
b11000110 $
b1111111000110 "
b1111111000110 #
#19900
b11000111 !
b11000111 $
b1111111000111 "
b1111111000111 #
#20000
b11001000 !
b11001000 $
b1111111001000 "
b1111111001000 #
#20100
b11001001 !
b11001001 $
b1111111001001 "
b1111111001001 #
#20200
b11001010 !
b11001010 $
b1111111001010 "
b1111111001010 #
#20300
b11001011 !
b11001011 $
b1111111001011 "
b1111111001011 #
#20400
b11001100 !
b11001100 $
b1111111001100 "
b1111111001100 #
#20500
b11001101 !
b11001101 $
b1111111001101 "
b1111111001101 #
#20600
b11001110 !
b11001110 $
b1111111001110 "
b1111111001110 #
#20700
b11001111 !
b11001111 $
b1111111001111 "
b1111111001111 #
#20800
b11010000 !
b11010000 $
b1111111010000 "
b1111111010000 #
#20900
b11010001 !
b11010001 $
b1111111010001 "
b1111111010001 #
#21000
b11010010 !
b11010010 $
b1111111010010 "
b1111111010010 #
#21100
b11010011 !
b11010011 $
b1111111010011 "
b1111111010011 #
#21200
b11010100 !
b11010100 $
b1111111010100 "
b1111111010100 #
#21300
b11010101 !
b11010101 $
b1111111010101 "
b1111111010101 #
#21400
b11010110 !
b11010110 $
b1111111010110 "
b1111111010110 #
#21500
b11010111 !
b11010111 $
b1111111010111 "
b1111111010111 #
#21600
b11011000 !
b11011000 $
b1111111011000 "
b1111111011000 #
#21700
b11011001 !
b11011001 $
b1111111011001 "
b1111111011001 #
#21800
b11011010 !
b11011010 $
b1111111011010 "
b1111111011010 #
#21900
b11011011 !
b11011011 $
b1111111011011 "
b1111111011011 #
#22000
b11011100 !
b11011100 $
b1111111011100 "
b1111111011100 #
#22100
b11011101 !
b11011101 $
b1111111011101 "
b1111111011101 #
#22200
b11011110 !
b11011110 $
b1111111011110 "
b1111111011110 #
#22300
b11011111 !
b11011111 $
b1111111011111 "
b1111111011111 #
#22400
b11100000 !
b11100000 $
b1111111100000 "
b1111111100000 #
#22500
b11100001 !
b11100001 $
b1111111100001 "
b1111111100001 #
#22600
b11100010 !
b11100010 $
b1111111100010 "
b1111111100010 #
#22700
b11100011 !
b11100011 $
b1111111100011 "
b1111111100011 #
#22800
b11100100 !
b11100100 $
b1111111100100 "
b1111111100100 #
#22900
b11100101 !
b11100101 $
b1111111100101 "
b1111111100101 #
#23000
b11100110 !
b11100110 $
b1111111100110 "
b1111111100110 #
#23100
b11100111 !
b11100111 $
b1111111100111 "
b1111111100111 #
#23200
b11101000 !
b11101000 $
b1111111101000 "
b1111111101000 #
#23300
b11101001 !
b11101001 $
b1111111101001 "
b1111111101001 #
#23400
b11101010 !
b11101010 $
b1111111101010 "
b1111111101010 #
#23500
b11101011 !
b11101011 $
b1111111101011 "
b1111111101011 #
#23600
b11101100 !
b11101100 $
b1111111101100 "
b1111111101100 #
#23700
b11101101 !
b11101101 $
b1111111101101 "
b1111111101101 #
#23800
b11101110 !
b11101110 $
b1111111101110 "
b1111111101110 #
#23900
b11101111 !
b11101111 $
b1111111101111 "
b1111111101111 #
#24000
b11110000 !
b11110000 $
b1111111110000 "
b1111111110000 #
#24100
b11110001 !
b11110001 $
b1111111110001 "
b1111111110001 #
#24200
b11110010 !
b11110010 $
b1111111110010 "
b1111111110010 #
#24300
b11110011 !
b11110011 $
b1111111110011 "
b1111111110011 #
#24400
b11110100 !
b11110100 $
b1111111110100 "
b1111111110100 #
#24500
b11110101 !
b11110101 $
b1111111110101 "
b1111111110101 #
#24600
b11110110 !
b11110110 $
b1111111110110 "
b1111111110110 #
#24700
b11110111 !
b11110111 $
b1111111110111 "
b1111111110111 #
#24800
b11111000 !
b11111000 $
b1111111111000 "
b1111111111000 #
#24900
b11111001 !
b11111001 $
b1111111111001 "
b1111111111001 #
#25000
b11111010 !
b11111010 $
b1111111111010 "
b1111111111010 #
#25100
b11111011 !
b11111011 $
b1111111111011 "
b1111111111011 #
#25200
b11111100 !
b11111100 $
b1111111111100 "
b1111111111100 #
#25300
b11111101 !
b11111101 $
b1111111111101 "
b1111111111101 #
#25400
b11111110 !
b11111110 $
b1111111111110 "
b1111111111110 #
#25500
b11111111 !
b11111111 $
b1111111111111 "
b1111111111111 #
#25600
b0 !
b0 $
b0 "
b0 #
#25700
b1 !
b1 $
b1 "
b1 #
#25800
b10 !
b10 $
b10 "
b10 #
#25900
b11 !
b11 $
b11 "
b11 #
#26000
b100 !
b100 $
b100 "
b100 #
#26100
b101 !
b101 $
b101 "
b101 #
#26200
b110 !
b110 $
b110 "
b110 #
#26300
b111 !
b111 $
b111 "
b111 #
#26400
b1000 !
b1000 $
b1000 "
b1000 #
#26500
b1001 !
b1001 $
b1001 "
b1001 #
#26600
b1010 !
b1010 $
b1010 "
b1010 #
#26700
b1011 !
b1011 $
b1011 "
b1011 #
#26800
b1100 !
b1100 $
b1100 "
b1100 #
#26900
b1101 !
b1101 $
b1101 "
b1101 #
#27000
b1110 !
b1110 $
b1110 "
b1110 #
#27100
b1111 !
b1111 $
b1111 "
b1111 #
#27200
b10000 !
b10000 $
b10000 "
b10000 #
#27300
b10001 !
b10001 $
b10001 "
b10001 #
#27400
b10010 !
b10010 $
b10010 "
b10010 #
#27500
b10011 !
b10011 $
b10011 "
b10011 #
#27600
b10100 !
b10100 $
b10100 "
b10100 #
#27700
b10101 !
b10101 $
b10101 "
b10101 #
#27800
b10110 !
b10110 $
b10110 "
b10110 #
#27900
b10111 !
b10111 $
b10111 "
b10111 #
#28000
b11000 !
b11000 $
b11000 "
b11000 #
#28100
b11001 !
b11001 $
b11001 "
b11001 #
#28200
b11010 !
b11010 $
b11010 "
b11010 #
#28300
b11011 !
b11011 $
b11011 "
b11011 #
#28400
b11100 !
b11100 $
b11100 "
b11100 #
#28500
b11101 !
b11101 $
b11101 "
b11101 #
#28600
b11110 !
b11110 $
b11110 "
b11110 #
#28700
b11111 !
b11111 $
b11111 "
b11111 #
#28800
b100000 !
b100000 $
b100000 "
b100000 #
#28900
b100001 !
b100001 $
b100001 "
b100001 #
#29000
b100010 !
b100010 $
b100010 "
b100010 #
#29100
b100011 !
b100011 $
b100011 "
b100011 #
#29200
b100100 !
b100100 $
b100100 "
b100100 #
#29300
b100101 !
b100101 $
b100101 "
b100101 #
#29400
b100110 !
b100110 $
b100110 "
b100110 #
#29500
b100111 !
b100111 $
b100111 "
b100111 #
#29600
b101000 !
b101000 $
b101000 "
b101000 #
#29700
b101001 !
b101001 $
b101001 "
b101001 #
#29800
b101010 !
b101010 $
b101010 "
b101010 #
#29900
b101011 !
b101011 $
b101011 "
b101011 #
#30000
b101100 !
b101100 $
b101100 "
b101100 #
#30100
b101101 !
b101101 $
b101101 "
b101101 #
#30200
b101110 !
b101110 $
b101110 "
b101110 #
#30300
b101111 !
b101111 $
b101111 "
b101111 #
#30400
b110000 !
b110000 $
b110000 "
b110000 #
#30500
b110001 !
b110001 $
b110001 "
b110001 #
#30600
b110010 !
b110010 $
b110010 "
b110010 #
#30700
b110011 !
b110011 $
b110011 "
b110011 #
#30800
b110100 !
b110100 $
b110100 "
b110100 #
#30900
b110101 !
b110101 $
b110101 "
b110101 #
#31000
b110110 !
b110110 $
b110110 "
b110110 #
#31100
b110111 !
b110111 $
b110111 "
b110111 #
#31200
b111000 !
b111000 $
b111000 "
b111000 #
#31300
b111001 !
b111001 $
b111001 "
b111001 #
#31400
b111010 !
b111010 $
b111010 "
b111010 #
#31500
b111011 !
b111011 $
b111011 "
b111011 #
#31600
b111100 !
b111100 $
b111100 "
b111100 #
#31700
b111101 !
b111101 $
b111101 "
b111101 #
#31800
b111110 !
b111110 $
b111110 "
b111110 #
#31900
b111111 !
b111111 $
b111111 "
b111111 #
#32000
b1000000 !
b1000000 $
b1000000 "
b1000000 #
#32100
b1000001 !
b1000001 $
b1000001 "
b1000001 #
#32200
b1000010 !
b1000010 $
b1000010 "
b1000010 #
#32300
b1000011 !
b1000011 $
b1000011 "
b1000011 #
#32400
b1000100 !
b1000100 $
b1000100 "
b1000100 #
#32500
b1000101 !
b1000101 $
b1000101 "
b1000101 #
#32600
b1000110 !
b1000110 $
b1000110 "
b1000110 #
#32700
b1000111 !
b1000111 $
b1000111 "
b1000111 #
#32800
b1001000 !
b1001000 $
b1001000 "
b1001000 #
#32900
b1001001 !
b1001001 $
b1001001 "
b1001001 #
#33000
b1001010 !
b1001010 $
b1001010 "
b1001010 #
#33100
b1001011 !
b1001011 $
b1001011 "
b1001011 #
#33200
b1001100 !
b1001100 $
b1001100 "
b1001100 #
#33300
b1001101 !
b1001101 $
b1001101 "
b1001101 #
#33400
b1001110 !
b1001110 $
b1001110 "
b1001110 #
#33500
b1001111 !
b1001111 $
b1001111 "
b1001111 #
#33600
b1010000 !
b1010000 $
b1010000 "
b1010000 #
#33700
b1010001 !
b1010001 $
b1010001 "
b1010001 #
#33800
b1010010 !
b1010010 $
b1010010 "
b1010010 #
#33900
b1010011 !
b1010011 $
b1010011 "
b1010011 #
#34000
b1010100 !
b1010100 $
b1010100 "
b1010100 #
#34100
b1010101 !
b1010101 $
b1010101 "
b1010101 #
#34200
b1010110 !
b1010110 $
b1010110 "
b1010110 #
#34300
b1010111 !
b1010111 $
b1010111 "
b1010111 #
#34400
b1011000 !
b1011000 $
b1011000 "
b1011000 #
#34500
b1011001 !
b1011001 $
b1011001 "
b1011001 #
#34600
b1011010 !
b1011010 $
b1011010 "
b1011010 #
#34700
b1011011 !
b1011011 $
b1011011 "
b1011011 #
#34800
b1011100 !
b1011100 $
b1011100 "
b1011100 #
#34900
b1011101 !
b1011101 $
b1011101 "
b1011101 #
#35000
b1011110 !
b1011110 $
b1011110 "
b1011110 #
#35100
b1011111 !
b1011111 $
b1011111 "
b1011111 #
#35200
b1100000 !
b1100000 $
b1100000 "
b1100000 #
#35300
b1100001 !
b1100001 $
b1100001 "
b1100001 #
#35400
b1100010 !
b1100010 $
b1100010 "
b1100010 #
#35500
b1100011 !
b1100011 $
b1100011 "
b1100011 #
#35600
b1100100 !
b1100100 $
b1100100 "
b1100100 #
#35700
b1100101 !
b1100101 $
b1100101 "
b1100101 #
#35800
b1100110 !
b1100110 $
b1100110 "
b1100110 #
#35900
b1100111 !
b1100111 $
b1100111 "
b1100111 #
#36000
b1101000 !
b1101000 $
b1101000 "
b1101000 #
#36100
b1101001 !
b1101001 $
b1101001 "
b1101001 #
#36200
b1101010 !
b1101010 $
b1101010 "
b1101010 #
#36300
b1101011 !
b1101011 $
b1101011 "
b1101011 #
#36400
b1101100 !
b1101100 $
b1101100 "
b1101100 #
#36500
b1101101 !
b1101101 $
b1101101 "
b1101101 #
#36600
b1101110 !
b1101110 $
b1101110 "
b1101110 #
#36700
b1101111 !
b1101111 $
b1101111 "
b1101111 #
#36800
b1110000 !
b1110000 $
b1110000 "
b1110000 #
#36900
b1110001 !
b1110001 $
b1110001 "
b1110001 #
#37000
b1110010 !
b1110010 $
b1110010 "
b1110010 #
#37100
b1110011 !
b1110011 $
b1110011 "
b1110011 #
#37200
b1110100 !
b1110100 $
b1110100 "
b1110100 #
#37300
b1110101 !
b1110101 $
b1110101 "
b1110101 #
#37400
b1110110 !
b1110110 $
b1110110 "
b1110110 #
#37500
b1110111 !
b1110111 $
b1110111 "
b1110111 #
#37600
b1111000 !
b1111000 $
b1111000 "
b1111000 #
#37700
b1111001 !
b1111001 $
b1111001 "
b1111001 #
#37800
b1111010 !
b1111010 $
b1111010 "
b1111010 #
#37900
b1111011 !
b1111011 $
b1111011 "
b1111011 #
#38000
b1111100 !
b1111100 $
b1111100 "
b1111100 #
#38100
b1111101 !
b1111101 $
b1111101 "
b1111101 #
#38200
b1111110 !
b1111110 $
b1111110 "
b1111110 #
#38300
b1111111 !
b1111111 $
b1111111 "
b1111111 #
#38400
b10000000 "
b10000000 #
#38500
b10000001 "
b10000001 #
#38600
b10000010 "
b10000010 #
#38700
b10000011 "
b10000011 #
#38800
b10000100 "
b10000100 #
#38900
b10000101 "
b10000101 #
#39000
b10000110 "
b10000110 #
#39100
b10000111 "
b10000111 #
#39200
b10001000 "
b10001000 #
#39300
b10001001 "
b10001001 #
#39400
b10001010 "
b10001010 #
#39500
b10001011 "
b10001011 #
#39600
b10001100 "
b10001100 #
#39700
b10001101 "
b10001101 #
#39800
b10001110 "
b10001110 #
#39900
b10001111 "
b10001111 #
#40000
b10010000 "
b10010000 #
#40100
b10010001 "
b10010001 #
#40200
b10010010 "
b10010010 #
#40300
b10010011 "
b10010011 #
#40400
b10010100 "
b10010100 #
#40500
b10010101 "
b10010101 #
#40600
b10010110 "
b10010110 #
#40700
b10010111 "
b10010111 #
#40800
b10011000 "
b10011000 #
#40900
b10011001 "
b10011001 #
#41000
b10011010 "
b10011010 #
#41100
b10011011 "
b10011011 #
#41200
b10011100 "
b10011100 #
#41300
b10011101 "
b10011101 #
#41400
b10011110 "
b10011110 #
#41500
b10011111 "
b10011111 #
#41600
b10100000 "
b10100000 #
#41700
b10100001 "
b10100001 #
#41800
b10100010 "
b10100010 #
#41900
b10100011 "
b10100011 #
#42000
b10100100 "
b10100100 #
#42100
b10100101 "
b10100101 #
#42200
b10100110 "
b10100110 #
#42300
b10100111 "
b10100111 #
#42400
b10101000 "
b10101000 #
#42500
b10101001 "
b10101001 #
#42600
b10101010 "
b10101010 #
#42700
b10101011 "
b10101011 #
#42800
b10101100 "
b10101100 #
#42900
b10101101 "
b10101101 #
#43000
b10101110 "
b10101110 #
#43100
b10101111 "
b10101111 #
#43200
b10110000 "
b10110000 #
#43300
b10110001 "
b10110001 #
#43400
b10110010 "
b10110010 #
#43500
b10110011 "
b10110011 #
#43600
b10110100 "
b10110100 #
#43700
b10110101 "
b10110101 #
#43800
b10110110 "
b10110110 #
#43900
b10110111 "
b10110111 #
#44000
b10111000 "
b10111000 #
#44100
b10111001 "
b10111001 #
#44200
b10111010 "
b10111010 #
#44300
b10111011 "
b10111011 #
#44400
b10111100 "
b10111100 #
#44500
b10111101 "
b10111101 #
#44600
b10111110 "
b10111110 #
#44700
b10111111 "
b10111111 #
#44800
b11000000 "
b11000000 #
#44900
b11000001 "
b11000001 #
#45000
b11000010 "
b11000010 #
#45100
b11000011 "
b11000011 #
#45200
b11000100 "
b11000100 #
#45300
b11000101 "
b11000101 #
#45400
b11000110 "
b11000110 #
#45500
b11000111 "
b11000111 #
#45600
b11001000 "
b11001000 #
#45700
b11001001 "
b11001001 #
#45800
b11001010 "
b11001010 #
#45900
b11001011 "
b11001011 #
#46000
b11001100 "
b11001100 #
#46100
b11001101 "
b11001101 #
#46200
b11001110 "
b11001110 #
#46300
b11001111 "
b11001111 #
#46400
b11010000 "
b11010000 #
#46500
b11010001 "
b11010001 #
#46600
b11010010 "
b11010010 #
#46700
b11010011 "
b11010011 #
#46800
b11010100 "
b11010100 #
#46900
b11010101 "
b11010101 #
#47000
b11010110 "
b11010110 #
#47100
b11010111 "
b11010111 #
#47200
b11011000 "
b11011000 #
#47300
b11011001 "
b11011001 #
#47400
b11011010 "
b11011010 #
#47500
b11011011 "
b11011011 #
#47600
b11011100 "
b11011100 #
#47700
b11011101 "
b11011101 #
#47800
b11011110 "
b11011110 #
#47900
b11011111 "
b11011111 #
#48000
b11100000 "
b11100000 #
#48100
b11100001 "
b11100001 #
#48200
b11100010 "
b11100010 #
#48300
b11100011 "
b11100011 #
#48400
b11100100 "
b11100100 #
#48500
b11100101 "
b11100101 #
#48600
b11100110 "
b11100110 #
#48700
b11100111 "
b11100111 #
#48800
b11101000 "
b11101000 #
#48900
b11101001 "
b11101001 #
#49000
b11101010 "
b11101010 #
#49100
b11101011 "
b11101011 #
#49200
b11101100 "
b11101100 #
#49300
b11101101 "
b11101101 #
#49400
b11101110 "
b11101110 #
#49500
b11101111 "
b11101111 #
#49600
b11110000 "
b11110000 #
#49700
b11110001 "
b11110001 #
#49800
b11110010 "
b11110010 #
#49900
b11110011 "
b11110011 #
#50000
b11110100 "
b11110100 #
#50100
b11110101 "
b11110101 #
#50200
b11110110 "
b11110110 #
#50300
b11110111 "
b11110111 #
#50400
b11111000 "
b11111000 #
#50500
b11111001 "
b11111001 #
#50600
b11111010 "
b11111010 #
#50700
b11111011 "
b11111011 #
#50800
b11111100 "
b11111100 #
#50900
b11111101 "
b11111101 #
#51000
b11111110 "
b11111110 #
#51100
b11111111 "
b11111111 #
#51200
b100000000 "
b100000000 #
